{
  "page": 1,
  "total_pages": 500,
  "total_results": 10000,
  "results": [
    {
      "backdrop_path": "/iHSwvRVsRyxpX7FE7GbviaDvgGZ.jpg",
      "first_air_date": "2022-11-23",
      "genre_ids": [10765, 9648, 35],
      "id": 119051,
      "name": "Wednesday",
      "origin_country": ["US"],
      "original_language": "en",
      "original_name": "Wednesday",
      "overview": "Wednesday Addams is sent to Nevermore Academy, a bizarre boarding school where she attempts to master her psychic powers, stop a monstrous killing spree of the town citizens, and solve the supernatural mystery that affected her family 25 years ago — all while navigating her new relationships.",
      "popularity": 3430.916,
      "poster_path": "/9PFonBhy4cQy7Jz20NpMygczOkv.jpg",
      "vote_average": 8.7,
      "vote_count": 4629
    },
    {
      "backdrop_path": "/iHSwvRVsRyxpX7FE7GbviaDvgGZ.jpg",
      "first_air_date": "2022-11-23",
      "genre_ids": [10765, 9648, 35],
      "id": 119052,
      "name": "Wednesday",
      "origin_country": ["US"],
      "original_language": "en",
      "original_name": "Wednesday",
      "overview": "Wednesday Addams is sent to Nevermore Academy, a bizarre boarding school where she attempts to master her psychic powers, stop a monstrous killing spree of the town citizens, and solve the supernatural mystery that affected her family 25 years ago — all while navigating her new relationships.",
      "popularity": 3430.916,
      "poster_path": "/9PFonBhy4cQy7Jz20NpMygczOkv.jpg",
      "vote_average": 8.7,
      "vote_count": 4629
    }
  ]
}
