{
  "page": 1,
  "total_pages": 500,
  "total_results": 10000,
  "results": [
    {
      "adult": true,
      "gender": 2,
      "id": 1,
      "known_for_department": "Acting",
      "name": "Jongbo Peace",
      "popularity": 233,
      "profile_path": "/fkfkfkfk.jpg"
    },
    {
      "adult": true,
      "gender": 2,
      "id": 2,
      "known_for_department": "Directing",
      "name": "Jongbo Love",
      "popularity": 214,
      "profile_path": "/fkfkfkfk.jpg"
    }
  ]
}
